(module DSR01S30SL (layer F.Cu) (tedit 59A1A77E)
  (fp_text reference REF** (at 0 4.8) (layer F.SilkS)
    (effects (font (size 1 1) (thickness 0.15)))
  )
  (fp_text value DSR01S30SL (at 0 -6.4) (layer F.Fab)
    (effects (font (size 1 1) (thickness 0.15)))
  )
  (fp_line (start -0.275 -0.175) (end -0.275 0.175) (layer F.SilkS) (width 0.15))
  (fp_line (start -0.275 0.175) (end 0.275 0.175) (layer F.SilkS) (width 0.15))
  (fp_line (start 0.275 0.175) (end 0.275 -0.175) (layer F.SilkS) (width 0.15))
  (fp_line (start 0.275 -0.175) (end -0.275 -0.175) (layer F.SilkS) (width 0.15))
  (pad 2 smd rect (at 0.2 0) (size 0.21 0.32) (layers F.Cu F.Paste F.Mask))
  (pad 1 smd rect (at -0.2 0) (size 0.21 0.32) (layers F.Cu F.Paste F.Mask))
)
